{
  "Version": "0x00030001",
  "BlockSize": "0x00004000",
  "PageSize": "0x00000200",
  "PartitionSize": "0x02000000",
  "SDRAM": [
  {
      "MemoryType": "lpddr2",
      "Timings": [
        "0x00000008", "0x00000000", "0x0000001a", "0x00000215", 
        "0x00000000", "0x0000012c", "0x00000000", "0x00000000", 
        "0x00000001", "0x001fffff", "0xa0f10505", "0x00000064", 
        "0x00000001", "0x00000000", "0x00000000", "0x00000000", 
        "0x0000001f", "0x00000045", "0x00000016", "0x00000009", 
        "0x00000008", "0x00000009", "0x00000003", "0x0000000d", 
        "0x00000009", "0x00000009", "0x00000005", "0x00000003", 
        "0x00000000", "0x00000004", "0x0000000a", "0x00000006", 
        "0x0000000d", "0x00000010", "0x00000000", "0x00000000", 
        "0x000007df", "0x00000000", "0x000001f7", "0x00000003", 
        "0x00000003", "0x00000009", "0x00000000", "0x00000001", 
        "0x0000000f", "0x0000004b", "0x0000004b", "0x00000008", 
        "0x0000001b", "0x0000000c", "0x00000004", "0x00000002", 
        "0x000008aa", "0x00000000", "0x00006282", "0x00000004", 
        "0xe0000000", "0xff00ff88", "0x00000000", "0x00000000", 
        "0x000100c2", "0x00020006", "0x00030002", "0x000100c2", 
        "0x000100c2", "0x00020006", "0x00030002", "0x00020006", 
        "0x00000000", "0x00000000", "0x003f0000", "0x0000000a", 
        "0x000e000e", "0xb3e00000", "0x000c009b", "0x01000400", 
        "0x10004408", "0x06000404", "0x800010d9", "0x00000001", 
        "0xf0120091", "0x00008000", "0x00000000", "0x0004032c", 
        "0x00000008", "0x00000008", "0x00000008", "0x00000008", 
        "0x00000008", "0x00000008", "0x00000008", "0x00000008", 
        "0x00000000", "0x00000000", "0x00000000", "0x00000000", 
        "0x00000000", "0x00000000", "0x00000000", "0x00000000", 
        "0x00000000", "0x00000000", "0x00000000", "0x00000000", 
        "0x00000000", "0x00000000", "0x00000000", "0x00000000", 
        "0x0000000c", "0x0000000c", "0x0000000c", "0x0000000c", 
        "0x00000001", "0x00000802", "0x00000000", "0x00000000", 
        "0x00064000", "0x00000030", "0x000a0056", "0x00000000", 
        "0x800a00ff", "0x400a00ff", "0x00000001", "0x00000001", 
        "0x00000001", "0x000a00ab", "0x00000011", "0x00000001", 
        "0x00000001", "0x00000000", "0x00000000", "0x00000000", 
        "0x00000000", "0x00000000", "0x00000000", "0x00000000", 
        "0x00000000", "0x00000000", "0x00000000", "0x00000000", 
        "0x00000000", "0x00000000", "0x00000000", "0x00000002", 
        "0x00000000", "0x00000000", "0x00000003", "0x00000000", 
        "0x00000003", "0x00000000", "0x82a00000", "0x00000000", 
        "0x00000000", "0x00080220", "0x770c0000", "0x770c1414", 
        "0x0400003d", "0x08000000", "0x770c2990", "0x00000000", 
        "0x77ffc004", "0x01f1f408", "0x00000000", "0x00000007", 
        "0x08000068", "0x00000001", "0x00070303", "0x00070303", 
        "0x00000400", "0x00000008", "0xc0000060", "0x00000003", 
        "0x00000004", "0x00000010", "0x0000000a", "0x0000000d", 
        "0x00000002", "0x00000002", "0x00000008", "0x00000002", 
        "0x00000000", "0x00000004", "0x00000005", "0x05040002", 
        "0x00110b10", "0x71c81811", "0x70000000", "0x001f0000", 
        "0x00000080", "0xff00ff00", "0x00000000"
      ]
  },
  {
      "MemoryType": "lpddr2",
      "Timings": [
        "0x00000008", "0x00000000", "0x0000001a", "0x00000215", 
        "0x00000000", "0x0000012c", "0x00000000", "0x00000000", 
        "0x00000001", "0x001fffff", "0xa0f10404", "0x00000064", 
        "0x00000001", "0x00000000", "0x00000000", "0x00000000", 
        "0x0000001f", "0x00000045", "0x00000016", "0x00000009", 
        "0x00000008", "0x00000009", "0x00000003", "0x0000000d", 
        "0x00000009", "0x00000009", "0x00000005", "0x00000003", 
        "0x00000000", "0x00000004", "0x0000000a", "0x00000006", 
        "0x0000000d", "0x00000010", "0x00000000", "0x00000000", 
        "0x000007df", "0x00000000", "0x000001f7", "0x00000003", 
        "0x00000003", "0x00000009", "0x00000000", "0x00000001", 
        "0x0000000f", "0x0000004b", "0x0000004b", "0x00000008", 
        "0x0000001b", "0x0000000c", "0x00000004", "0x00000002", 
        "0x000008aa", "0x00000000", "0x00006282", "0x00000004", 
        "0xe0000000", "0xff00ff88", "0x00000000", "0x00000000", 
        "0x000100c2", "0x00020006", "0x00030002", "0x000100c2", 
        "0x000100c2", "0x00020006", "0x00030002", "0x00020006", 
        "0x00000000", "0x00000000", "0x003f0000", "0x0000000a", 
        "0x000e000e", "0xb3e00000", "0x000c009b", "0x01000400", 
        "0x10004408", "0x06000404", "0x800010d9", "0x00000001", 
        "0xf0120091", "0x00008000", "0x00000000", "0x0004032c", 
        "0x007fc008", "0x007fc008", "0x007fc008", "0x007fc008", 
        "0x007fc008", "0x007fc008", "0x007fc008", "0x007fc008", 
        "0x00000000", "0x00000000", "0x00000000", "0x00000000", 
        "0x00000000", "0x00000000", "0x00000000", "0x00000000", 
        "0x00000000", "0x00000000", "0x00000000", "0x00000000", 
        "0x00000000", "0x00000000", "0x00000000", "0x00000000", 
        "0x0000000c", "0x0000000c", "0x0000000c", "0x0000000c", 
        "0x00000001", "0x00000802", "0x00000000", "0x00000000", 
        "0x00064000", "0x00000030", "0x000a0056", "0x00000000", 
        "0x800a00ff", "0x400a00ff", "0x00000001", "0x00000001", 
        "0x00000001", "0x000a00ab", "0x00000011", "0x00000001", 
        "0x00000001", "0x00000000", "0x00000000", "0x00000000", 
        "0x00000000", "0x00000000", "0x00000000", "0x00000000", 
        "0x00000000", "0x00000000", "0x00000000", "0x00000000", 
        "0x00000000", "0x00000000", "0x00000000", "0x00000002", 
        "0x00000000", "0x00000000", "0x00000003", "0x00000000", 
        "0x00000003", "0x00000000", "0x82a00000", "0x00000000", 
        "0x00000000", "0x000b0220", "0x770c0000", "0x770c1414", 
        "0x0600003d", "0x08000000", "0x770c2990", "0x00000000", 
        "0x77ffc004", "0x01f1f408", "0x00000000", "0x00000007", 
        "0x08000068", "0x00000001", "0x00070303", "0x00070303", 
        "0x00000400", "0x00000008", "0xc0000060", "0x00000003", 
        "0x00000004", "0x00000010", "0x0000000a", "0x0000000d", 
        "0x00000002", "0x00000002", "0x00000008", "0x00000002", 
        "0x00000000", "0x00000004", "0x00000005", "0x05040002", 
        "0x00110b10", "0x71c81811", "0x70000000", "0x001f0000", 
        "0x00000080", "0xff00ff00", "0x00000000"
      ]
  }
  ]
}
