{
  "Version": "0x00030001",
  "BlockSize": "0x00008000",
  "PageSize": "0x00000800",
  "PartitionSize": "0x01000000",
  "BootDev": [
    {
      "DevType": "spi",
      "ReadCommandTypeFast": "0x00000000",
      "ClockDivider": "0x00000003",
      "ClockSource": "PllPOut0"
    },
    {
      "DevType": "spi",
      "ReadCommandTypeFast": "0x00000000",
      "ClockDivider": "0x00000003",
      "ClockSource": "PllPOut0"
    },
    {
      "DevType": "spi",
      "ReadCommandTypeFast": "0x00000000",
      "ClockDivider": "0x00000003",
      "ClockSource": "PllPOut0"
    },
    {
      "DevType": "spi",
      "ReadCommandTypeFast": "0x00000000",
      "ClockDivider": "0x00000003",
      "ClockSource": "PllPOut0"
    }
  ],
  "SDRAM": [
  {
      "MemoryType": "ddr3",
      "Timings": [
        "0x00000008", "0x00000000", "0x0000000c", "0x000002ee", 
        "0x00000000", "0x0000012c", "0x00000002", "0x00000000", 
        "0x00000000", "0x001fffff", "0xa0f10000", "0x00000064", 
        "0x00000080", "0x00000001", "0x00000000", "0x00000000", 
        "0x00000011", "0x0000006f", "0x0000000c", "0x00000004", 
        "0x00000003", "0x00000008", "0x00000002", "0x0000000a", 
        "0x00000004", "0x00000004", "0x00000002", "0x00000001", 
        "0x00000000", "0x00000004", "0x00000006", "0x00000004", 
        "0x0000000a", "0x0000000c", "0x00000000", "0x00000000", 
        "0x00000b2d", "0x00000000", "0x000002cb", "0x00000001", 
        "0x00000008", "0x00000001", "0x00000000", "0x00000007", 
        "0x0000000f", "0x00000075", "0x00000200", "0x00000004", 
        "0x0000000c", "0x00000000", "0x00000004", "0x00000005", 
        "0x00000b6d", "0x00000000", "0x00007088", "0x00000004", 
        "0xe8000000", "0xff00ff89", "0x80000521", "0x80100002", 
        "0x00000000", "0x00000000", "0x00000000", "0x00000000", 
        "0x00000000", "0x00000000", "0x00000000", "0x00000000", 
        "0x00000000", "0x00000000", "0x00000000", "0x00000000", 
        "0x0150000c", "0x23c00000", "0x000c0099", "0x01000400", 
        "0x10004408", "0x06000404", "0x8000174b", "0x00000001", 
        "0x00200084", "0x00008000", "0x00000002", "0x0004032c", 
        "0x0003c000", "0x0003c000", "0x0003c000", "0x0003c000", 
        "0x0003c000", "0x0003c000", "0x0003c000", "0x0003c000", 
        "0x00000000", "0x00000000", "0x00000000", "0x00000000", 
        "0x00000000", "0x00000000", "0x00000000", "0x00000000", 
        "0x00000000", "0x00000000", "0x00000000", "0x00000000", 
        "0x00000000", "0x00000000", "0x00000000", "0x00000000", 
        "0x00048000", "0x00048000", "0x00048000", "0x00048000", 
        "0x00000002", "0x00000802", "0x00000000", "0x00000000", 
        "0x00020000", "0x00000040", "0x80000000", "0x00000000", 
        "0x80000011", "0x00000000", "0x00000002", "0x00000001", 
        "0x00000001", "0x000a00ab", "0x00000011", "0x00000001", 
        "0x00000001", "0x00000000", "0x80200000", "0x80300000", 
        "0x80000521", "0x80100002", "0x80000521", "0x80200000", 
        "0x80300000", "0x80100002", "0x00000000", "0x00000000", 
        "0x00000000", "0x00000000", "0x00000000", "0x00000002", 
        "0x00000000", "0x00000000", "0x00000003", "0x00000002", 
        "0x00000003", "0x00000002", "0x80800000", "0x00000000", 
        "0x00000000", "0x000002a0", "0x770c0000", "0x770c1414", 
        "0x0800013d", "0x08000021", "0x770c2990", "0x00000000", 
        "0x77fff884", "0x01f1f508", "0x05057404", "0x54000007", 
        "0x080001e8", "0x00000000", "0x00090303", "0x00090303", 
        "0x00000800", "0x0000000b", "0xc0000044", "0x00000001", 
        "0x00000002", "0x00000009", "0x00000005", "0x00000005", 
        "0x00000001", "0x00000002", "0x00000008", "0x00000002", 
        "0x00000002", "0x00000003", "0x00000006", "0x06030202", 
        "0x000d0709", "0x7086110a", "0x78000000", "0x001f0000", 
        "0x00000080", "0xff00ff00", "0x00000000"
      ]
  },
  {
      "MemoryType": "ddr3",
      "Timings": [
        "0x00000008", "0x00000000", "0x0000000c", "0x000002ee", 
        "0x00000000", "0x0000012c", "0x00000002", "0x00000000", 
        "0x00000000", "0x001fffff", "0xa0f10000", "0x00000064", 
        "0x00000080", "0x00000001", "0x00000000", "0x00000000", 
        "0x00000011", "0x00000060", "0x0000000c", "0x00000004", 
        "0x00000003", "0x00000008", "0x00000002", "0x0000000a", 
        "0x00000004", "0x00000004", "0x00000002", "0x00000001", 
        "0x00000000", "0x00000004", "0x00000006", "0x00000004", 
        "0x0000000a", "0x0000000c", "0x00000000", "0x00000000", 
        "0x00000b2d", "0x00000000", "0x000002cb", "0x00000001", 
        "0x00000008", "0x00000001", "0x00000000", "0x00000007", 
        "0x0000000f", "0x00000066", "0x00000200", "0x00000004", 
        "0x0000000c", "0x00000000", "0x00000004", "0x00000005", 
        "0x00000b6d", "0x00000000", "0x00007088", "0x00000004", 
        "0xe8000000", "0xff00ff89", "0x80000521", "0x80100002", 
        "0x00000000", "0x00000000", "0x00000000", "0x00000000", 
        "0x00000000", "0x00000000", "0x00000000", "0x00000000", 
        "0x00000000", "0x00000000", "0x00000000", "0x00000000", 
        "0x015f000c", "0x23c00000", "0x000c0099", "0x01000400", 
        "0x10004408", "0x06000404", "0x8000174b", "0x00000001", 
        "0x00200084", "0x00008000", "0x00000002", "0x0004032c", 
        "0x0003c000", "0x0003c000", "0x0003c000", "0x0003c000", 
        "0x0003c000", "0x0003c000", "0x0003c000", "0x0003c000", 
        "0x00000000", "0x00000000", "0x00000000", "0x00000000", 
        "0x00000000", "0x00000000", "0x00000000", "0x00000000", 
        "0x00000000", "0x00000000", "0x00000000", "0x00000000", 
        "0x00000000", "0x00000000", "0x00000000", "0x00000000", 
        "0x00048000", "0x00048000", "0x00048000", "0x00048000", 
        "0x00000002", "0x00000802", "0x00000000", "0x00000000", 
        "0x00020000", "0x00000040", "0x80000000", "0x00000000", 
        "0x80000011", "0x00000000", "0x00000002", "0x00000001", 
        "0x00000001", "0x000a00ab", "0x00000011", "0x00000001", 
        "0x00000001", "0x00000000", "0x80200000", "0x80300000", 
        "0x80000521", "0x80100002", "0x80000521", "0x80200000", 
        "0x80300000", "0x80100002", "0x00000000", "0x00000000", 
        "0x00000000", "0x00000000", "0x00000000", "0x00000002", 
        "0x00000000", "0x00000000", "0x00000003", "0x00000002", 
        "0x00000003", "0x00000002", "0x80800000", "0x00000000", 
        "0x00000000", "0x000002a0", "0x770c0000", "0x770c1414", 
        "0x0800013d", "0x08000021", "0x770c2990", "0x00000000", 
        "0x77fff884", "0x01f1f508", "0x05057404", "0x54000007", 
        "0x080001e8", "0x00000000", "0x00090303", "0x00090303", 
        "0x00000800", "0x0000000b", "0xc0000044", "0x00000001", 
        "0x00000002", "0x00000009", "0x00000005", "0x00000005", 
        "0x00000001", "0x00000002", "0x00000008", "0x00000002", 
        "0x00000002", "0x00000003", "0x00000006", "0x06030202", 
        "0x000d0709", "0x7086110a", "0x78000000", "0x001f0000", 
        "0x00000080", "0xff00ff00", "0x00000000"
      ]
  },
  {
      "MemoryType": "ddr3",
      "Timings": [
        "0x00000008", "0x00000000", "0x0000000c", "0x00000320", 
        "0x00000000", "0x0000012c", "0x00000002", "0x00000000", 
        "0x00000000", "0x001fffff", "0xa0f10000", "0x00000064", 
        "0x00000000", "0x00000001", "0x00000000", "0x00000000", 
        "0x00000012", "0x0000003e", "0x0000000c", "0x00000004", 
        "0x00000003", "0x00000008", "0x00000002", "0x0000000a", 
        "0x00000004", "0x00000004", "0x00000002", "0x00000001", 
        "0x00000000", "0x00000004", "0x00000006", "0x00000004", 
        "0x0000000a", "0x0000000c", "0x00000000", "0x00000000", 
        "0x00000bf0", "0x00000000", "0x000002fc", "0x00000001", 
        "0x00000008", "0x00000001", "0x00000000", "0x00000008", 
        "0x0000000f", "0x00000044", "0x00000200", "0x00000004", 
        "0x0000000c", "0x00000000", "0x00000004", "0x00000005", 
        "0x00000c30", "0x00000000", "0x00007088", "0x00000004", 
        "0xe8000000", "0xff00ff89", "0x80000521", "0x80100002", 
        "0x00000000", "0x00000000", "0x00000000", "0x00000000", 
        "0x00000000", "0x00000000", "0x00000000", "0x00000000", 
        "0x00000000", "0x00000000", "0x00000000", "0x00000000", 
        "0x0180000c", "0x23c00000", "0x000c0099", "0x01000400", 
        "0x10004408", "0x06000404", "0x800018c8", "0x00000001", 
        "0x001d0084", "0x00008000", "0x00000002", "0x0004032c", 
        "0x0003c000", "0x0003c000", "0x0003c000", "0x0003c000", 
        "0x0003c000", "0x0003c000", "0x0003c000", "0x0003c000", 
        "0x00000000", "0x00000000", "0x00000000", "0x00000000", 
        "0x00000000", "0x00000000", "0x00000000", "0x00000000", 
        "0x00000000", "0x00000000", "0x00000000", "0x00000000", 
        "0x00000000", "0x00000000", "0x00000000", "0x00000000", 
        "0x00048000", "0x00048000", "0x00048000", "0x00048000", 
        "0x00000002", "0x00000802", "0x00000000", "0x00000000", 
        "0x00020000", "0x00000040", "0x80000000", "0x00000000", 
        "0x80000011", "0x00000000", "0x00000002", "0x00000001", 
        "0x00000001", "0x000a00ab", "0x00000011", "0x00000001", 
        "0x00000001", "0x00000000", "0x80200000", "0x80300000", 
        "0x80000521", "0x80100002", "0x80000521", "0x80200000", 
        "0x80300000", "0x80100002", "0x00000000", "0x00000000", 
        "0x00000000", "0x00000000", "0x00000000", "0x00000002", 
        "0x00000000", "0x00000000", "0x00000003", "0x00000002", 
        "0x00000003", "0x00000002", "0x80800000", "0x00000000", 
        "0x00000000", "0x000002a0", "0x770c0000", "0x770c1414", 
        "0x0800013d", "0x08000021", "0x770c2990", "0x00000000", 
        "0x77fff884", "0x01f1f508", "0x05057404", "0x54000007", 
        "0x080001e8", "0x00000000", "0x00080303", "0x00080303", 
        "0x00000400", "0x00000006", "0x80000048", "0x00000001", 
        "0x00000002", "0x00000009", "0x00000005", "0x00000005", 
        "0x00000001", "0x00000002", "0x00000008", "0x00000002", 
        "0x00000002", "0x00000003", "0x00000006", "0x06030202", 
        "0x000d0709", "0x7086120a", "0x78000000", "0x001f0000", 
        "0x00000080", "0xff00ff00", "0x00000000"
      ]
  },
  {
      "MemoryType": "ddr3",
      "Timings": [
        "0x00000008", "0x00000000", "0x0000000c", "0x00000320", 
        "0x00000000", "0x0000012c", "0x00000002", "0x00000000", 
        "0x00000000", "0x001fffff", "0xa0f10000", "0x00000064", 
        "0x00000000", "0x00000001", "0x00000000", "0x00000000", 
        "0x00000012", "0x0000003e", "0x0000000c", "0x00000004", 
        "0x00000003", "0x00000008", "0x00000002", "0x0000000a", 
        "0x00000004", "0x00000004", "0x00000002", "0x00000001", 
        "0x00000000", "0x00000004", "0x00000006", "0x00000004", 
        "0x0000000a", "0x0000000c", "0x00000000", "0x00000000", 
        "0x00000bf0", "0x00000000", "0x000002fc", "0x00000001", 
        "0x00000008", "0x00000001", "0x00000000", "0x00000008", 
        "0x0000000f", "0x00000044", "0x00000200", "0x00000004", 
        "0x0000000c", "0x00000000", "0x00000004", "0x00000005", 
        "0x00000c30", "0x00000000", "0x00007088", "0x00000004", 
        "0xe8000000", "0xff00ff89", "0x80000521", "0x80100002", 
        "0x00000000", "0x00000000", "0x00000000", "0x00000000", 
        "0x00000000", "0x00000000", "0x00000000", "0x00000000", 
        "0x00000000", "0x00000000", "0x00000000", "0x00000000", 
        "0x0180000c", "0x23c00000", "0x000c0099", "0x01000400", 
        "0x10004408", "0x06000404", "0x800018c8", "0x00000001", 
        "0x001d0084", "0x00008000", "0x00000002", "0x0004032c", 
        "0x0003c000", "0x0003c000", "0x0003c000", "0x0003c000", 
        "0x0003c000", "0x0003c000", "0x0003c000", "0x0003c000", 
        "0x00000000", "0x00000000", "0x00000000", "0x00000000", 
        "0x00000000", "0x00000000", "0x00000000", "0x00000000", 
        "0x00000000", "0x00000000", "0x00000000", "0x00000000", 
        "0x00000000", "0x00000000", "0x00000000", "0x00000000", 
        "0x00048000", "0x00048000", "0x00048000", "0x00048000", 
        "0x00000002", "0x00000802", "0x00000000", "0x00000000", 
        "0x00020000", "0x00000040", "0x80000000", "0x00000000", 
        "0x80000011", "0x00000000", "0x00000002", "0x00000001", 
        "0x00000001", "0x000a00ab", "0x00000011", "0x00000001", 
        "0x00000001", "0x00000000", "0x80200000", "0x80300000", 
        "0x80000521", "0x80100002", "0x80000521", "0x80200000", 
        "0x80300000", "0x80100002", "0x00000000", "0x00000000", 
        "0x00000000", "0x00000000", "0x00000000", "0x00000002", 
        "0x00000000", "0x00000000", "0x00000003", "0x00000002", 
        "0x00000003", "0x00000002", "0x80800000", "0x00000000", 
        "0x00000000", "0x000002a0", "0x770c0000", "0x770c1414", 
        "0x0800013d", "0x08000021", "0x770c2990", "0x00000000", 
        "0x77fff884", "0x01f1f508", "0x05057404", "0x54000007", 
        "0x080001e8", "0x00000000", "0x00080303", "0x00080303", 
        "0x00000400", "0x00000006", "0x80000048", "0x00000001", 
        "0x00000002", "0x00000009", "0x00000005", "0x00000005", 
        "0x00000001", "0x00000002", "0x00000008", "0x00000002", 
        "0x00000002", "0x00000003", "0x00000006", "0x06030202", 
        "0x000d0709", "0x7086120a", "0x78000000", "0x001f0000", 
        "0x00000080", "0xff00ff00", "0x00000000"
      ]
  }
  ]
}
