{
  "Version": "0x00030001",
  "BlockSize": "0x00004000",
  "PageSize": "0x00000200",
  "PartitionSize": "0x02000000",
  "BootDev": [
    {
      "DevType": "sdmmc",
      "ClockDivider": "0x00000009",
      "DataWidth": "8BIT",
      "MaxPowerClassSupported": "0x00000000",
      "SdController": "SDMMC4"
    },
    {
      "DevType": "sdmmc",
      "ClockDivider": "0x00000009",
      "DataWidth": "8BIT",
      "MaxPowerClassSupported": "0x00000000",
      "SdController": "SDMMC4"
    },
    {
      "DevType": "sdmmc",
      "ClockDivider": "0x00000009",
      "DataWidth": "8BIT",
      "MaxPowerClassSupported": "0x00000000",
      "SdController": "SDMMC4"
    },
    {
      "DevType": "sdmmc",
      "ClockDivider": "0x00000009",
      "DataWidth": "8BIT",
      "MaxPowerClassSupported": "0x00000000",
      "SdController": "SDMMC4"
    }
  ],
  "SDRAM": [
  {
      "MemoryType": "ddr3",
      "Timings": [
        "0x00000008", "0x00000000", "0x0000000c", "0x0000029b", 
        "0x00000000", "0x0000012c", "0x00000000", "0x00000000", 
        "0x00000001", "0x001fffff", "0xa0f10000", "0x00000064", 
        "0x00000000", "0x00000001", "0x00000000", "0x00000000", 
        "0x0000001f", "0x000000ac", "0x00000016", "0x00000008", 
        "0x00000005", "0x0000000c", "0x00000003", "0x00000011", 
        "0x00000008", "0x00000008", "0x00000003", "0x00000001", 
        "0x00000000", "0x00000007", "0x0000000a", "0x00000009", 
        "0x0000000b", "0x00000011", "0x00000000", "0x00000000", 
        "0x00001412", "0x00000000", "0x00000504", "0x00000002", 
        "0x0000000e", "0x00000001", "0x00000000", "0x0000000c", 
        "0x00000016", "0x000000b5", "0x00000200", "0x00000005", 
        "0x0000001b", "0x00000000", "0x00000006", "0x00000007", 
        "0x00001453", "0x0000000b", "0x00005088", "0x00000006", 
        "0xf8000000", "0xff00ff49", "0x80000b71", "0x80100002", 
        "0x00000000", "0x00000000", "0x00000000", "0x00000000", 
        "0x00000000", "0x00000000", "0x00000000", "0x00000000", 
        "0x00000000", "0x00000000", "0x00000000", "0x00000000", 
        "0x0113000c", "0x23e00000", "0x000c0099", "0x01000400", 
        "0x10004408", "0x06000404", "0x800028a5", "0x00000001", 
        "0xf00b0191", "0x00008000", "0x00000002", "0x0004032c", 
        "0x0000000a", "0x0000000a", "0x0000000a", "0x0000000a", 
        "0x0000000a", "0x0000000a", "0x0000000a", "0x0000000a", 
        "0x00018000", "0x00018000", "0x00018000", "0x00018000", 
        "0x00018000", "0x00018000", "0x00018000", "0x00018000", 
        "0x00000000", "0x00000000", "0x00000000", "0x00000000", 
        "0x00000000", "0x00000000", "0x00000000", "0x00000000", 
        "0x0000000c", "0x0000000c", "0x0000000c", "0x0000000c", 
        "0x00000002", "0x00000802", "0x00000000", "0x00000000", 
        "0x00020000", "0x00000040", "0x80000000", "0x00000000", 
        "0x80000011", "0x00000000", "0x00000001", "0x00000001", 
        "0x00000001", "0x000a00ab", "0x00000011", "0x00000001", 
        "0x00000001", "0x00000000", "0x80200018", "0x80300000", 
        "0x80000b71", "0x80100002", "0x80000b71", "0x80200018", 
        "0x80300000", "0x80100002", "0x00000000", "0x00000000", 
        "0x00000000", "0x00000000", "0x00000000", "0x00000002", 
        "0x00000000", "0x00000000", "0x00000003", "0x00000002", 
        "0x00000003", "0x00000002", "0x80800000", "0x00000000", 
        "0x00000000", "0x000002a0", "0x770c0000", "0x770c1414", 
        "0x0800013d", "0x08000021", "0x770c2990", "0x22220000", 
        "0x77fff884", "0x01f1f501", "0x07077404", "0x54000000", 
        "0x080001e8", "0x00000000", "0x00080303", "0x00080303", 
        "0x00000400", "0x00000014", "0xc0000079", "0x00000003", 
        "0x00000004", "0x00000010", "0x0000000a", "0x0000000d", 
        "0x00000002", "0x00000003", "0x0000000b", "0x00000002", 
        "0x00000002", "0x00000004", "0x00000008", "0x08040202", 
        "0x00140c10", "0x70ea1f11", "0x78000000", "0x001f0000", 
        "0x00000080", "0xff00ff00", "0x00000000"
      ]
  },
  {
      "MemoryType": "ddr3",
      "Timings": [
        "0x00000008", "0x00000000", "0x0000000c", "0x0000029b", 
        "0x00000000", "0x0000012c", "0x00000000", "0x00000000", 
        "0x00000001", "0x001fffff", "0xa0f10000", "0x00000064", 
        "0x00000000", "0x00000001", "0x00000000", "0x00000000", 
        "0x0000001f", "0x000000ac", "0x00000017", "0x00000007", 
        "0x00000005", "0x0000000c", "0x00000003", "0x00000011", 
        "0x00000007", "0x00000007", "0x00000003", "0x00000001", 
        "0x00000000", "0x00000007", "0x0000000a", "0x00000009", 
        "0x0000000b", "0x00000011", "0x00000000", "0x00000000", 
        "0x00001412", "0x00000000", "0x00000504", "0x00000002", 
        "0x0000000e", "0x00000001", "0x00000000", "0x0000000c", 
        "0x00000016", "0x000000b5", "0x00000200", "0x00000005", 
        "0x0000001f", "0x00000000", "0x00000006", "0x00000007", 
        "0x00001453", "0x0000000b", "0x00005088", "0x00000006", 
        "0xf8000000", "0xff00ff49", "0x80000b71", "0x80100002", 
        "0x00000000", "0x00000000", "0x00000000", "0x00000000", 
        "0x00000000", "0x00000000", "0x00000000", "0x00000000", 
        "0x00000000", "0x00000000", "0x00000000", "0x00000000", 
        "0x0113000c", "0x23e00000", "0x000c0099", "0x01000400", 
        "0x10004408", "0x06000404", "0x800028a5", "0x00000001", 
        "0xf00b0191", "0x00008000", "0x00000002", "0x0004032c", 
        "0x0000000a", "0x0000000a", "0x0000000a", "0x0000000a", 
        "0x0000000a", "0x0000000a", "0x0000000a", "0x0000000a", 
        "0x00018000", "0x00018000", "0x00018000", "0x00018000", 
        "0x00018000", "0x00018000", "0x00018000", "0x00018000", 
        "0x00000000", "0x00000000", "0x00000000", "0x00000000", 
        "0x00000000", "0x00000000", "0x00000000", "0x00000000", 
        "0x0000000c", "0x0000000c", "0x0000000c", "0x0000000c", 
        "0x00000002", "0x00000802", "0x00000000", "0x00000000", 
        "0x00020000", "0x00000040", "0x80000000", "0x00000000", 
        "0x80000011", "0x00000000", "0x00000001", "0x00000001", 
        "0x00000001", "0x000a00ab", "0x00000011", "0x00000001", 
        "0x00000001", "0x00000000", "0x80200018", "0x80300000", 
        "0x80000b71", "0x80100002", "0x80000b71", "0x80200018", 
        "0x80300000", "0x80100002", "0x00000000", "0x00000000", 
        "0x00000000", "0x00000000", "0x00000000", "0x00000002", 
        "0x00000000", "0x00000000", "0x00000003", "0x00000002", 
        "0x00000003", "0x00000002", "0x80800000", "0x00000000", 
        "0x00000000", "0x000002a0", "0x770c0000", "0x770c1414", 
        "0x0600013d", "0x08000021", "0x770c2990", "0x22220000", 
        "0x77fff884", "0x01f1f501", "0x07077404", "0x54000000", 
        "0x080001e8", "0x00000000", "0x00080303", "0x00080303", 
        "0x00000400", "0x00000014", "0xc0000079", "0x00000003", 
        "0x00000004", "0x00000010", "0x0000000b", "0x0000000f", 
        "0x00000002", "0x00000003", "0x0000000b", "0x00000002", 
        "0x00000002", "0x00000004", "0x00000008", "0x08040202", 
        "0x00130b10", "0x70ea1f11", "0x78000000", "0x001f0000", 
        "0x00000080", "0xff00ff00", "0x00000000"
      ]
  },
  {
      "MemoryType": "ddr3",
      "Timings": [
        "0x00000008", "0x00000000", "0x0000000c", "0x0000029b", 
        "0x00000000", "0x0000012c", "0x00000000", "0x00000000", 
        "0x00000001", "0x001fffff", "0xa0f10000", "0x00000064", 
        "0x00000000", "0x00000001", "0x00000000", "0x00000000", 
        "0x0000001f", "0x000000ac", "0x00000017", "0x00000007", 
        "0x00000005", "0x0000000c", "0x00000003", "0x00000011", 
        "0x00000007", "0x00000007", "0x00000003", "0x00000001", 
        "0x00000000", "0x00000007", "0x0000000a", "0x00000009", 
        "0x0000000b", "0x00000011", "0x00000000", "0x00000000", 
        "0x00001412", "0x00000000", "0x00000504", "0x00000002", 
        "0x0000000e", "0x00000001", "0x00000000", "0x0000000c", 
        "0x00000016", "0x000000b5", "0x00000200", "0x00000005", 
        "0x0000001f", "0x00000000", "0x00000006", "0x00000007", 
        "0x00001453", "0x0000000b", "0x00005088", "0x00000006", 
        "0xf8000000", "0xff00ff49", "0x80000b71", "0x80100002", 
        "0x00000000", "0x00000000", "0x00000000", "0x00000000", 
        "0x00000000", "0x00000000", "0x00000000", "0x00000000", 
        "0x00000000", "0x00000000", "0x00000000", "0x00000000", 
        "0x0113000c", "0x23e00000", "0x000c0099", "0x01000400", 
        "0x10004408", "0x06000404", "0x800028a5", "0x00000001", 
        "0xf00b0191", "0x00008000", "0x00000002", "0x0004032c", 
        "0x0000000a", "0x0000000a", "0x0000000a", "0x0000000a", 
        "0x0000000a", "0x0000000a", "0x0000000a", "0x0000000a", 
        "0x00018000", "0x00018000", "0x00018000", "0x00018000", 
        "0x00018000", "0x00018000", "0x00018000", "0x00018000", 
        "0x00000000", "0x00000000", "0x00000000", "0x00000000", 
        "0x00000000", "0x00000000", "0x00000000", "0x00000000", 
        "0x0000000c", "0x0000000c", "0x0000000c", "0x0000000c", 
        "0x00000002", "0x00000802", "0x00000000", "0x00000000", 
        "0x00020000", "0x00000040", "0x80000000", "0x00000000", 
        "0x80000011", "0x00000000", "0x00000001", "0x00000001", 
        "0x00000001", "0x000a00ab", "0x00000011", "0x00000001", 
        "0x00000001", "0x00000000", "0x80200018", "0x80300000", 
        "0x80000b71", "0x80100002", "0x80000b71", "0x80200018", 
        "0x80300000", "0x80100002", "0x00000000", "0x00000000", 
        "0x00000000", "0x00000000", "0x00000000", "0x00000002", 
        "0x00000000", "0x00000000", "0x00000003", "0x00000002", 
        "0x00000003", "0x00000002", "0x80800000", "0x00000000", 
        "0x00000000", "0x000002a0", "0x770c0000", "0x770c1414", 
        "0x0600013d", "0x08000021", "0x770c2990", "0x22220000", 
        "0x77fff884", "0x01f1f501", "0x07077404", "0x54000000", 
        "0x080001e8", "0x00000000", "0x00080303", "0x00080303", 
        "0x00000400", "0x00000014", "0xc0000079", "0x00000003", 
        "0x00000004", "0x00000010", "0x0000000b", "0x0000000f", 
        "0x00000002", "0x00000003", "0x0000000b", "0x00000002", 
        "0x00000002", "0x00000004", "0x00000008", "0x08040202", 
        "0x00130b10", "0x70ea1f11", "0x78000000", "0x001f0000", 
        "0x00000080", "0xff00ff00", "0x00000000"
      ]
  },
  {
      "MemoryType": "ddr3",
      "Timings": [
        "0x00000008", "0x00000000", "0x0000000c", "0x0000029b", 
        "0x00000000", "0x0000012c", "0x00000000", "0x00000000", 
        "0x00000001", "0x001fffff", "0xa0f10000", "0x00000064", 
        "0x00000000", "0x00000001", "0x00000000", "0x00000000", 
        "0x0000001f", "0x000000ac", "0x00000017", "0x00000007", 
        "0x00000005", "0x0000000c", "0x00000003", "0x00000011", 
        "0x00000007", "0x00000007", "0x00000003", "0x00000001", 
        "0x00000000", "0x00000007", "0x0000000a", "0x00000009", 
        "0x0000000b", "0x00000011", "0x00000000", "0x00000000", 
        "0x00001412", "0x00000000", "0x00000504", "0x00000002", 
        "0x0000000e", "0x00000001", "0x00000000", "0x0000000c", 
        "0x00000016", "0x000000b5", "0x00000200", "0x00000005", 
        "0x0000001f", "0x00000000", "0x00000006", "0x00000007", 
        "0x00001453", "0x0000000b", "0x00005088", "0x00000006", 
        "0xf8000000", "0xff00ff49", "0x80000b71", "0x80100002", 
        "0x00000000", "0x00000000", "0x00000000", "0x00000000", 
        "0x00000000", "0x00000000", "0x00000000", "0x00000000", 
        "0x00000000", "0x00000000", "0x00000000", "0x00000000", 
        "0x0113000c", "0x23e00000", "0x000c0099", "0x01000400", 
        "0x10004408", "0x06000404", "0x800028a5", "0x00000001", 
        "0xf00b0191", "0x00008000", "0x00000002", "0x0004032c", 
        "0x0000000a", "0x0000000a", "0x0000000a", "0x0000000a", 
        "0x0000000a", "0x0000000a", "0x0000000a", "0x0000000a", 
        "0x00018000", "0x00018000", "0x00018000", "0x00018000", 
        "0x00018000", "0x00018000", "0x00018000", "0x00018000", 
        "0x00000000", "0x00000000", "0x00000000", "0x00000000", 
        "0x00000000", "0x00000000", "0x00000000", "0x00000000", 
        "0x0000000c", "0x0000000c", "0x0000000c", "0x0000000c", 
        "0x00000002", "0x00000802", "0x00000000", "0x00000000", 
        "0x00020000", "0x00000040", "0x80000000", "0x00000000", 
        "0x80000011", "0x00000000", "0x00000001", "0x00000001", 
        "0x00000001", "0x000a00ab", "0x00000011", "0x00000001", 
        "0x00000001", "0x00000000", "0x80200018", "0x80300000", 
        "0x80000b71", "0x80100002", "0x80000b71", "0x80200018", 
        "0x80300000", "0x80100002", "0x00000000", "0x00000000", 
        "0x00000000", "0x00000000", "0x00000000", "0x00000002", 
        "0x00000000", "0x00000000", "0x00000003", "0x00000002", 
        "0x00000003", "0x00000002", "0x80800000", "0x00000000", 
        "0x00000000", "0x000002a0", "0x770c0000", "0x770c1414", 
        "0x0600013d", "0x08000021", "0x770c2990", "0x22220000", 
        "0x77fff884", "0x01f1f501", "0x07077404", "0x54000000", 
        "0x080001e8", "0x00000000", "0x00080303", "0x00080303", 
        "0x00000400", "0x00000014", "0xc0000079", "0x00000003", 
        "0x00000004", "0x00000010", "0x0000000b", "0x0000000f", 
        "0x00000002", "0x00000003", "0x0000000b", "0x00000002", 
        "0x00000002", "0x00000004", "0x00000008", "0x08040202", 
        "0x00130b10", "0x70ea1f11", "0x78000000", "0x001f0000", 
        "0x00000080", "0xff00ff00", "0x00000000"
      ]
  }
  ]
}
